material,range,color
Holz,1,#062302
Holz,1,#062302
Holz,2,#062302
Holz,2,#062302
Holz,2,#062302
Holz,3,#062302
Stein,2,#230206
Stein,2,#230206
Stein,3,#230206
Stein,3,#230206
Stein,3,#230206
Stein,4,#230206
Stahl,3,#020623
Stahl,3,#020623
Stahl,4,#020623
Stahl,4,#020623
Stahl,4,#020623
Stahl,5,#020623
